{
	"Z1": [
		"Z1002"
	],
	"Z2": [
		"Z1002"
	],
	"Z3": [
		"Z1002"
	],
	"Z4": [
		"Z1002",
		"Z1689"
	],
	"Z5": [
		"Z50",
		"Z1002"
	],
	"Z6": [
		"Z1002"
	],
	"Z7": [
		"Z1002"
	],
	"Z8": [
		"Z1002"
	],
	"Z9": [
		"Z1002"
	],
	"Z11": [
		"Z60",
		"Z1002"
	],
	"Z12": [
		"Z1002"
	],
	"Z14": [
		"Z1002",
		"Z16"
	],
	"Z16": [
		"Z61",
		"Z1002"
	],
	"Z17": [
		"Z1002"
	],
	"Z18": [
		"Z1002"
	],
	"Z20": [
		"Z1002"
	],
	"Z21": [
		"Z1002"
	],
	"Z22": [
		"Z1002"
	],
	"Z23": [
		"Z1002"
	],
	"Z24": [
		"Z21",
		"Z1002"
	],
	"Z31": [
		"Z60",
		"Z1002"
	],
	"Z32": [
		"Z1002"
	],
	"Z39": [
		"Z1002"
	],
	"Z40": [
		"Z1002"
	],
	"Z41": [
		"Z40",
		"Z1002"
	],
	"Z42": [
		"Z40",
		"Z1002"
	],
	"Z46": [
		"Z1002",
		"Z16",
		"Z1689"
	],
	"Z50": [
		"Z1002"
	],
	"Z60": [
		"Z1002"
	],
	"Z61": [
		"Z1002"
	],
	"Z64": [
		"Z1002",
		"Z16",
		"Z1689"
	],
	"Z80": [
		"Z1002"
	],
	"Z86": [
		"Z1002"
	],
	"Z99": [
		"Z1002"
	],
	"Z101": [
		"Z17",
		"Z1002"
	],
	"Z102": [
		"Z17",
		"Z1002"
	],
	"Z103": [
		"Z17",
		"Z1002"
	],
	"Z104": [
		"Z17",
		"Z1002"
	],
	"Z105": [
		"Z17",
		"Z1002"
	],
	"Z106": [
		"Z17",
		"Z1002"
	],
	"Z107": [
		"Z17",
		"Z1002"
	],
	"Z108": [
		"Z17",
		"Z1002"
	],
	"Z109": [
		"Z17",
		"Z1002"
	],
	"Z111": [
		"Z17",
		"Z1002"
	],
	"Z112": [
		"Z17",
		"Z1002"
	],
	"Z114": [
		"Z17",
		"Z1002"
	],
	"Z116": [
		"Z17",
		"Z1002"
	],
	"Z117": [
		"Z17",
		"Z1002"
	],
	"Z118": [
		"Z17",
		"Z1002"
	],
	"Z120": [
		"Z17",
		"Z1002"
	],
	"Z121": [
		"Z17",
		"Z1002"
	],
	"Z122": [
		"Z17",
		"Z1002"
	],
	"Z123": [
		"Z17",
		"Z1002"
	],
	"Z131": [
		"Z17",
		"Z1002"
	],
	"Z132": [
		"Z17",
		"Z1002"
	],
	"Z139": [
		"Z17",
		"Z1002"
	],
	"Z140": [
		"Z17",
		"Z1002"
	],
	"Z150": [
		"Z17",
		"Z1002"
	],
	"Z160": [
		"Z17",
		"Z1002"
	],
	"Z161": [
		"Z17",
		"Z1002"
	],
	"Z180": [
		"Z17",
		"Z1002"
	],
	"Z186": [
		"Z17",
		"Z1002"
	],
	"Z199": [
		"Z17",
		"Z1002"
	],
	"Z201": [
		"Z14",
		"Z1002"
	],
	"Z202": [
		"Z14",
		"Z1002"
	],
	"Z203": [
		"Z14",
		"Z1002"
	],
	"Z204": [
		"Z14",
		"Z1002"
	],
	"Z205": [
		"Z14",
		"Z1002"
	],
	"Z206": [
		"Z14",
		"Z1002"
	],
	"Z207": [
		"Z14",
		"Z1002"
	],
	"Z208": [
		"Z14",
		"Z1002"
	],
	"Z209": [
		"Z14",
		"Z1002"
	],
	"Z211": [
		"Z14",
		"Z1002"
	],
	"Z212": [
		"Z14",
		"Z1002"
	],
	"Z214": [
		"Z14",
		"Z1002"
	],
	"Z216": [
		"Z14",
		"Z1002"
	],
	"Z217": [
		"Z14",
		"Z1002"
	],
	"Z218": [
		"Z14",
		"Z1002"
	],
	"Z220": [
		"Z14",
		"Z1002"
	],
	"Z221": [
		"Z14",
		"Z1002"
	],
	"Z222": [
		"Z14",
		"Z1002"
	],
	"Z223": [
		"Z14",
		"Z1002"
	],
	"Z231": [
		"Z14",
		"Z1002"
	],
	"Z232": [
		"Z14",
		"Z1002"
	],
	"Z239": [
		"Z14",
		"Z1002"
	],
	"Z240": [
		"Z14",
		"Z1002"
	],
	"Z250": [
		"Z14",
		"Z1002"
	],
	"Z260": [
		"Z14",
		"Z1002"
	],
	"Z261": [
		"Z14",
		"Z1002"
	],
	"Z280": [
		"Z14",
		"Z1002"
	],
	"Z286": [
		"Z14",
		"Z1002"
	],
	"Z299": [
		"Z14",
		"Z1002"
	],
	"Z500": [
		"Z50",
		"Z1002"
	],
	"Z501": [
		"Z50",
		"Z1002"
	],
	"Z502": [
		"Z50",
		"Z1002"
	],
	"Z503": [
		"Z50",
		"Z1002"
	],
	"Z504": [
		"Z50",
		"Z1002"
	],
	"Z505": [
		"Z50",
		"Z1002"
	],
	"Z506": [
		"Z50",
		"Z1002"
	],
	"Z507": [
		"Z50",
		"Z1002"
	],
	"Z508": [
		"Z50",
		"Z1002"
	],
	"Z509": [
		"Z50",
		"Z1002"
	],
	"Z510": [
		"Z50",
		"Z1002"
	],
	"Z511": [
		"Z50",
		"Z1002"
	],
	"Z512": [
		"Z50",
		"Z1002"
	],
	"Z513": [
		"Z50",
		"Z1002"
	],
	"Z514": [
		"Z50",
		"Z14",
		"Z1002"
	],
	"Z515": [
		"Z50",
		"Z14",
		"Z1002"
	],
	"Z516": [
		"Z50",
		"Z1002"
	],
	"Z517": [
		"Z50",
		"Z1002"
	],
	"Z518": [
		"Z50",
		"Z1002"
	],
	"Z519": [
		"Z50",
		"Z1002"
	],
	"Z520": [
		"Z50",
		"Z1002"
	],
	"Z521": [
		"Z50",
		"Z1002"
	],
	"Z522": [
		"Z50",
		"Z1002"
	],
	"Z523": [
		"Z50",
		"Z1002"
	],
	"Z524": [
		"Z50",
		"Z1002"
	],
	"Z525": [
		"Z50",
		"Z1002"
	],
	"Z526": [
		"Z50",
		"Z1002"
	],
	"Z531": [
		"Z50",
		"Z1002"
	],
	"Z532": [
		"Z50",
		"Z1002"
	],
	"Z533": [
		"Z50",
		"Z1002"
	],
	"Z534": [
		"Z50",
		"Z1002"
	],
	"Z535": [
		"Z50",
		"Z1002"
	],
	"Z536": [
		"Z50",
		"Z1002"
	],
	"Z537": [
		"Z50",
		"Z1002"
	],
	"Z538": [
		"Z50",
		"Z1002"
	],
	"Z539": [
		"Z50",
		"Z1002"
	],
	"Z540": [
		"Z50",
		"Z1002"
	],
	"Z541": [
		"Z50",
		"Z1002"
	],
	"Z542": [
		"Z50",
		"Z1002"
	],
	"Z543": [
		"Z50",
		"Z1002"
	],
	"Z544": [
		"Z50",
		"Z1002"
	],
	"Z545": [
		"Z50",
		"Z1002"
	],
	"Z546": [
		"Z50",
		"Z1002"
	],
	"Z547": [
		"Z50",
		"Z1002"
	],
	"Z548": [
		"Z50",
		"Z1002"
	],
	"Z549": [
		"Z50",
		"Z1002"
	],
	"Z550": [
		"Z50",
		"Z1002"
	],
	"Z551": [
		"Z50",
		"Z1002"
	],
	"Z552": [
		"Z50",
		"Z1002"
	],
	"Z553": [
		"Z50",
		"Z1002"
	],
	"Z554": [
		"Z50",
		"Z1002"
	],
	"Z555": [
		"Z50",
		"Z1002"
	],
	"Z556": [
		"Z50",
		"Z1002"
	],
	"Z557": [
		"Z50",
		"Z1002"
	],
	"Z558": [
		"Z50",
		"Z1002"
	],
	"Z559": [
		"Z50",
		"Z1002"
	],
	"Z560": [
		"Z50",
		"Z1002"
	],
	"Z561": [
		"Z50",
		"Z1002"
	],
	"Z562": [
		"Z50",
		"Z1002"
	],
	"Z563": [
		"Z50",
		"Z1002"
	],
	"Z564": [
		"Z50",
		"Z1002"
	],
	"Z565": [
		"Z50",
		"Z1002"
	],
	"Z570": [
		"Z50",
		"Z1002"
	],
	"Z571": [
		"Z50",
		"Z1002"
	],
	"Z572": [
		"Z50",
		"Z1002"
	],
	"Z573": [
		"Z50",
		"Z1002"
	],
	"Z574": [
		"Z50",
		"Z1002"
	],
	"Z575": [
		"Z50",
		"Z1002"
	],
	"Z600": [
		"Z61",
		"Z1002"
	],
	"Z601": [
		"Z61",
		"Z1002"
	],
	"Z602": [
		"Z61",
		"Z1002"
	],
	"Z603": [
		"Z61",
		"Z1002"
	],
	"Z604": [
		"Z61",
		"Z1002"
	],
	"Z605": [
		"Z61",
		"Z1002"
	],
	"Z606": [
		"Z61",
		"Z1002"
	],
	"Z607": [
		"Z61",
		"Z1002"
	],
	"Z608": [
		"Z61",
		"Z1002"
	],
	"Z610": [
		"Z61",
		"Z1002"
	],
	"Z611": [
		"Z61",
		"Z1002"
	],
	"Z612": [
		"Z61",
		"Z1002"
	],
	"Z613": [
		"Z61",
		"Z1002"
	],
	"Z614": [
		"Z61",
		"Z1002"
	],
	"Z615": [
		"Z61",
		"Z1002"
	],
	"Z620": [
		"Z61",
		"Z1002"
	],
	"Z801": [
		"Z17",
		"Z1002"
	],
	"Z802": [
		"Z17",
		"Z1002"
	],
	"Z803": [
		"Z17",
		"Z1002"
	],
	"Z804": [
		"Z17",
		"Z1002"
	],
	"Z805": [
		"Z17",
		"Z1002"
	],
	"Z808": [
		"Z17",
		"Z1002"
	],
	"Z810": [
		"Z17",
		"Z1002"
	],
	"Z811": [
		"Z17",
		"Z1002"
	],
	"Z812": [
		"Z17",
		"Z1002"
	],
	"Z813": [
		"Z17",
		"Z1002"
	],
	"Z820": [
		"Z17",
		"Z1002"
	],
	"Z821": [
		"Z17",
		"Z1002"
	],
	"Z822": [
		"Z17",
		"Z1002"
	],
	"Z823": [
		"Z17",
		"Z1002"
	],
	"Z828": [
		"Z17",
		"Z1002"
	],
	"Z831": [
		"Z17",
		"Z1002"
	],
	"Z844": [
		"Z17",
		"Z1002"
	],
	"Z860": [
		"Z17",
		"Z1002"
	],
	"Z866": [
		"Z17",
		"Z1002"
	],
	"Z868": [
		"Z17",
		"Z1002"
	],
	"Z872": [
		"Z17",
		"Z1002"
	],
	"Z873": [
		"Z17",
		"Z1002"
	],
	"Z876": [
		"Z17",
		"Z1002"
	],
	"Z881": [
		"Z17",
		"Z1002"
	],
	"Z882": [
		"Z17",
		"Z1002"
	],
	"Z883": [
		"Z17",
		"Z1002"
	],
	"Z885": [
		"Z17",
		"Z1002"
	],
	"Z886": [
		"Z17",
		"Z1002"
	],
	"Z888": [
		"Z17",
		"Z1002"
	],
	"Z889": [
		"Z17",
		"Z1002"
	],
	"Z899": [
		"Z17",
		"Z1002"
	],
	"Z901": [
		"Z14",
		"Z1002"
	],
	"Z902": [
		"Z14",
		"Z1002"
	],
	"Z903": [
		"Z14",
		"Z1002"
	],
	"Z904": [
		"Z14",
		"Z1002"
	],
	"Z905": [
		"Z14",
		"Z1002"
	],
	"Z908": [
		"Z14",
		"Z1002"
	],
	"Z910": [
		"Z14",
		"Z1002"
	],
	"Z911": [
		"Z14",
		"Z1002"
	],
	"Z912": [
		"Z14",
		"Z1002"
	],
	"Z913": [
		"Z14",
		"Z1002"
	],
	"Z920": [
		"Z14",
		"Z1002"
	],
	"Z921": [
		"Z14",
		"Z1002"
	],
	"Z922": [
		"Z14",
		"Z1002"
	],
	"Z923": [
		"Z14",
		"Z1002"
	],
	"Z928": [
		"Z14",
		"Z1002"
	],
	"Z931": [
		"Z14",
		"Z1002"
	],
	"Z944": [
		"Z14",
		"Z1002"
	],
	"Z960": [
		"Z14",
		"Z1002"
	],
	"Z966": [
		"Z14",
		"Z1002"
	],
	"Z968": [
		"Z14",
		"Z1002"
	],
	"Z972": [
		"Z14",
		"Z1002"
	],
	"Z973": [
		"Z14",
		"Z1002"
	],
	"Z976": [
		"Z14",
		"Z1002"
	],
	"Z981": [
		"Z14",
		"Z1002"
	],
	"Z982": [
		"Z14",
		"Z1002"
	],
	"Z983": [
		"Z14",
		"Z1002"
	],
	"Z985": [
		"Z14",
		"Z1002"
	],
	"Z986": [
		"Z14",
		"Z1002"
	],
	"Z988": [
		"Z14",
		"Z1002"
	],
	"Z989": [
		"Z14",
		"Z1002"
	],
	"Z999": [
		"Z14",
		"Z1002"
	],
	"Z1001": [
		"Z60",
		"Z1002"
	],
	"Z1002": [
		"Z60"
	],
	"Z1003": [
		"Z60",
		"Z1002"
	],
	"Z1004": [
		"Z60",
		"Z1002"
	],
	"Z1005": [
		"Z60",
		"Z1002"
	],
	"Z1006": [
		"Z60",
		"Z1002"
	],
	"Z1011": [
		"Z60",
		"Z1002"
	],
	"Z1012": [
		"Z60",
		"Z1002"
	],
	"Z1013": [
		"Z60",
		"Z1002"
	],
	"Z1014": [
		"Z60",
		"Z1002"
	],
	"Z1015": [
		"Z60",
		"Z1002"
	],
	"Z1016": [
		"Z60",
		"Z1002"
	],
	"Z1017": [
		"Z60",
		"Z1002"
	],
	"Z1018": [
		"Z60",
		"Z1002"
	],
	"Z1019": [
		"Z60",
		"Z1002"
	],
	"Z1020": [
		"Z60",
		"Z1002"
	],
	"Z1021": [
		"Z60",
		"Z1002"
	],
	"Z1022": [
		"Z60",
		"Z1002"
	],
	"Z1023": [
		"Z60",
		"Z1002"
	],
	"Z1024": [
		"Z60",
		"Z1002"
	],
	"Z1025": [
		"Z60",
		"Z1002"
	],
	"Z1026": [
		"Z60",
		"Z1002"
	],
	"Z1027": [
		"Z60",
		"Z1002"
	],
	"Z1028": [
		"Z60",
		"Z1002"
	],
	"Z1029": [
		"Z60",
		"Z1002"
	],
	"Z1030": [
		"Z60",
		"Z1002"
	],
	"Z1031": [
		"Z60",
		"Z1002"
	],
	"Z1032": [
		"Z60",
		"Z1002"
	],
	"Z1033": [
		"Z60",
		"Z1002"
	],
	"Z1034": [
		"Z60",
		"Z1002"
	],
	"Z1035": [
		"Z60",
		"Z1002"
	],
	"Z1036": [
		"Z60",
		"Z1002"
	],
	"Z1037": [
		"Z60",
		"Z1002"
	],
	"Z1038": [
		"Z60",
		"Z1002"
	],
	"Z1039": [
		"Z60",
		"Z1002"
	],
	"Z1040": [
		"Z60",
		"Z1002"
	],
	"Z1041": [
		"Z60",
		"Z1002"
	],
	"Z1042": [
		"Z60",
		"Z1002"
	],
	"Z1043": [
		"Z60",
		"Z1002"
	],
	"Z1044": [
		"Z60",
		"Z1002"
	],
	"Z1045": [
		"Z60",
		"Z1002"
	],
	"Z1046": [
		"Z60",
		"Z1002"
	],
	"Z1047": [
		"Z60",
		"Z1002"
	],
	"Z1048": [
		"Z60",
		"Z1002"
	],
	"Z1049": [
		"Z60",
		"Z1002"
	],
	"Z1050": [
		"Z60",
		"Z1002"
	],
	"Z1051": [
		"Z60",
		"Z1002"
	],
	"Z1052": [
		"Z60",
		"Z1002"
	],
	"Z1053": [
		"Z60",
		"Z1002"
	],
	"Z1054": [
		"Z60",
		"Z1002"
	],
	"Z1055": [
		"Z60",
		"Z1002"
	],
	"Z1056": [
		"Z60",
		"Z1002"
	],
	"Z1057": [
		"Z60",
		"Z1002"
	],
	"Z1058": [
		"Z60",
		"Z1002"
	],
	"Z1059": [
		"Z60",
		"Z1002"
	],
	"Z1060": [
		"Z60",
		"Z1002"
	],
	"Z1061": [
		"Z60",
		"Z1002"
	],
	"Z1062": [
		"Z60",
		"Z1002"
	],
	"Z1063": [
		"Z60",
		"Z1002"
	],
	"Z1064": [
		"Z60",
		"Z1002"
	],
	"Z1065": [
		"Z60",
		"Z1002"
	],
	"Z1066": [
		"Z60",
		"Z1002"
	],
	"Z1067": [
		"Z60",
		"Z1002"
	],
	"Z1068": [
		"Z60",
		"Z1002"
	],
	"Z1069": [
		"Z60",
		"Z1002"
	],
	"Z1070": [
		"Z60",
		"Z1002"
	],
	"Z1071": [
		"Z60",
		"Z1002"
	],
	"Z1072": [
		"Z60",
		"Z1002"
	],
	"Z1073": [
		"Z60",
		"Z1002"
	],
	"Z1074": [
		"Z60",
		"Z1002"
	],
	"Z1075": [
		"Z60",
		"Z1002"
	],
	"Z1076": [
		"Z60",
		"Z1002"
	],
	"Z1077": [
		"Z60",
		"Z1002"
	],
	"Z1078": [
		"Z60",
		"Z1002"
	],
	"Z1079": [
		"Z60",
		"Z1002"
	],
	"Z1080": [
		"Z60",
		"Z1002"
	],
	"Z1081": [
		"Z60",
		"Z1002"
	],
	"Z1082": [
		"Z60",
		"Z1002"
	],
	"Z1083": [
		"Z60",
		"Z1002"
	],
	"Z1084": [
		"Z60",
		"Z1002"
	],
	"Z1085": [
		"Z60",
		"Z1002"
	],
	"Z1086": [
		"Z60",
		"Z1002"
	],
	"Z1087": [
		"Z60",
		"Z1002"
	],
	"Z1088": [
		"Z60",
		"Z1002"
	],
	"Z1089": [
		"Z60",
		"Z1002"
	],
	"Z1090": [
		"Z60",
		"Z1002"
	],
	"Z1091": [
		"Z60",
		"Z1002"
	],
	"Z1092": [
		"Z60",
		"Z1002"
	],
	"Z1093": [
		"Z60",
		"Z1002"
	],
	"Z1094": [
		"Z60",
		"Z1002"
	],
	"Z1095": [
		"Z60",
		"Z1002"
	],
	"Z1096": [
		"Z60",
		"Z1002"
	],
	"Z1097": [
		"Z60",
		"Z1002"
	],
	"Z1098": [
		"Z60",
		"Z1002"
	],
	"Z1099": [
		"Z60",
		"Z1002"
	],
	"Z1100": [
		"Z60",
		"Z1002"
	],
	"Z1101": [
		"Z60",
		"Z1002"
	],
	"Z1102": [
		"Z60",
		"Z1002"
	],
	"Z1103": [
		"Z60",
		"Z1002"
	],
	"Z1104": [
		"Z60",
		"Z1002"
	],
	"Z1105": [
		"Z60",
		"Z1002"
	],
	"Z1106": [
		"Z60",
		"Z1002"
	],
	"Z1107": [
		"Z60",
		"Z1002"
	],
	"Z1108": [
		"Z60",
		"Z1002"
	],
	"Z1109": [
		"Z60",
		"Z1002"
	],
	"Z1110": [
		"Z60",
		"Z1002"
	],
	"Z1111": [
		"Z60",
		"Z1002"
	],
	"Z1112": [
		"Z60",
		"Z1002"
	],
	"Z1113": [
		"Z60",
		"Z1002"
	],
	"Z1114": [
		"Z60",
		"Z1002"
	],
	"Z1115": [
		"Z60",
		"Z1002"
	],
	"Z1116": [
		"Z60",
		"Z1002"
	],
	"Z1117": [
		"Z60",
		"Z1002"
	],
	"Z1118": [
		"Z60",
		"Z1002"
	],
	"Z1119": [
		"Z60",
		"Z1002"
	],
	"Z1120": [
		"Z60",
		"Z1002"
	],
	"Z1121": [
		"Z60",
		"Z1002"
	],
	"Z1122": [
		"Z60",
		"Z1002"
	],
	"Z1123": [
		"Z60",
		"Z1002"
	],
	"Z1124": [
		"Z60",
		"Z1002"
	],
	"Z1125": [
		"Z60",
		"Z1002"
	],
	"Z1126": [
		"Z60",
		"Z1002"
	],
	"Z1127": [
		"Z60",
		"Z1002"
	],
	"Z1128": [
		"Z60",
		"Z1002"
	],
	"Z1129": [
		"Z60",
		"Z1002"
	],
	"Z1130": [
		"Z60",
		"Z1002"
	],
	"Z1131": [
		"Z60",
		"Z1002"
	],
	"Z1132": [
		"Z60",
		"Z1002"
	],
	"Z1133": [
		"Z60",
		"Z1002"
	],
	"Z1134": [
		"Z60",
		"Z1002"
	],
	"Z1135": [
		"Z60",
		"Z1002"
	],
	"Z1136": [
		"Z60",
		"Z1002"
	],
	"Z1137": [
		"Z60",
		"Z1002"
	],
	"Z1138": [
		"Z60",
		"Z1002"
	],
	"Z1139": [
		"Z60",
		"Z1002"
	],
	"Z1140": [
		"Z60",
		"Z1002"
	],
	"Z1141": [
		"Z60",
		"Z1002"
	],
	"Z1142": [
		"Z60",
		"Z1002"
	],
	"Z1143": [
		"Z60",
		"Z1002"
	],
	"Z1144": [
		"Z60",
		"Z1002"
	],
	"Z1145": [
		"Z60",
		"Z1002"
	],
	"Z1146": [
		"Z60",
		"Z1002"
	],
	"Z1147": [
		"Z60",
		"Z1002"
	],
	"Z1148": [
		"Z60",
		"Z1002"
	],
	"Z1149": [
		"Z60",
		"Z1002"
	],
	"Z1150": [
		"Z60",
		"Z1002"
	],
	"Z1151": [
		"Z60",
		"Z1002"
	],
	"Z1152": [
		"Z60",
		"Z1002"
	],
	"Z1153": [
		"Z60",
		"Z1002"
	],
	"Z1154": [
		"Z60",
		"Z1002"
	],
	"Z1155": [
		"Z60",
		"Z1002"
	],
	"Z1156": [
		"Z60",
		"Z1002"
	],
	"Z1157": [
		"Z60",
		"Z1002"
	],
	"Z1158": [
		"Z60",
		"Z1002"
	],
	"Z1159": [
		"Z60",
		"Z1002"
	],
	"Z1160": [
		"Z60",
		"Z1002"
	],
	"Z1161": [
		"Z60",
		"Z1002"
	],
	"Z1162": [
		"Z60",
		"Z1002"
	],
	"Z1163": [
		"Z60",
		"Z1002"
	],
	"Z1164": [
		"Z60",
		"Z1002"
	],
	"Z1165": [
		"Z60",
		"Z1002"
	],
	"Z1166": [
		"Z60",
		"Z1002"
	],
	"Z1167": [
		"Z60",
		"Z1002"
	],
	"Z1168": [
		"Z60",
		"Z1002"
	],
	"Z1169": [
		"Z60",
		"Z1002"
	],
	"Z1170": [
		"Z60",
		"Z1002"
	],
	"Z1171": [
		"Z60",
		"Z1002"
	],
	"Z1172": [
		"Z60",
		"Z1002"
	],
	"Z1173": [
		"Z60",
		"Z1002"
	],
	"Z1174": [
		"Z60",
		"Z1002"
	],
	"Z1175": [
		"Z60",
		"Z1002"
	],
	"Z1176": [
		"Z60",
		"Z1002"
	],
	"Z1177": [
		"Z60",
		"Z1002"
	],
	"Z1178": [
		"Z60",
		"Z1002"
	],
	"Z1179": [
		"Z60",
		"Z1002"
	],
	"Z1180": [
		"Z60",
		"Z1002"
	],
	"Z1181": [
		"Z60",
		"Z1002"
	],
	"Z1182": [
		"Z60",
		"Z1002"
	],
	"Z1183": [
		"Z60",
		"Z1002"
	],
	"Z1184": [
		"Z60",
		"Z1002"
	],
	"Z1185": [
		"Z60",
		"Z1002"
	],
	"Z1186": [
		"Z60",
		"Z1002"
	],
	"Z1187": [
		"Z60",
		"Z1002"
	],
	"Z1188": [
		"Z60",
		"Z1002"
	],
	"Z1189": [
		"Z60",
		"Z1002"
	],
	"Z1190": [
		"Z60",
		"Z1002"
	],
	"Z1191": [
		"Z60",
		"Z1002"
	],
	"Z1192": [
		"Z60",
		"Z1002"
	],
	"Z1193": [
		"Z60",
		"Z1002"
	],
	"Z1194": [
		"Z60",
		"Z1002"
	],
	"Z1195": [
		"Z60",
		"Z1002"
	],
	"Z1196": [
		"Z60",
		"Z1002"
	],
	"Z1197": [
		"Z60",
		"Z1002"
	],
	"Z1198": [
		"Z60",
		"Z1002"
	],
	"Z1199": [
		"Z60",
		"Z1002"
	],
	"Z1200": [
		"Z60",
		"Z1002"
	],
	"Z1201": [
		"Z60",
		"Z1002"
	],
	"Z1202": [
		"Z60",
		"Z1002"
	],
	"Z1203": [
		"Z60",
		"Z1002"
	],
	"Z1204": [
		"Z60",
		"Z1002"
	],
	"Z1205": [
		"Z60",
		"Z1002"
	],
	"Z1206": [
		"Z60",
		"Z1002"
	],
	"Z1207": [
		"Z60",
		"Z1002"
	],
	"Z1208": [
		"Z60",
		"Z1002"
	],
	"Z1209": [
		"Z60",
		"Z1002"
	],
	"Z1210": [
		"Z60",
		"Z1002"
	],
	"Z1211": [
		"Z60",
		"Z1002"
	],
	"Z1212": [
		"Z60",
		"Z1002"
	],
	"Z1213": [
		"Z60",
		"Z1002"
	],
	"Z1214": [
		"Z60",
		"Z1002"
	],
	"Z1215": [
		"Z60",
		"Z1002"
	],
	"Z1216": [
		"Z60",
		"Z1002"
	],
	"Z1217": [
		"Z60",
		"Z1002"
	],
	"Z1218": [
		"Z60",
		"Z1002"
	],
	"Z1219": [
		"Z60",
		"Z1002"
	],
	"Z1220": [
		"Z60",
		"Z1002"
	],
	"Z1221": [
		"Z60",
		"Z1002"
	],
	"Z1222": [
		"Z60",
		"Z1002"
	],
	"Z1223": [
		"Z60",
		"Z1002"
	],
	"Z1224": [
		"Z60",
		"Z1002"
	],
	"Z1225": [
		"Z60",
		"Z1002"
	],
	"Z1226": [
		"Z60",
		"Z1002"
	],
	"Z1227": [
		"Z60",
		"Z1002"
	],
	"Z1228": [
		"Z60",
		"Z1002"
	],
	"Z1229": [
		"Z60",
		"Z1002"
	],
	"Z1230": [
		"Z60",
		"Z1002"
	],
	"Z1231": [
		"Z60",
		"Z1002"
	],
	"Z1232": [
		"Z60",
		"Z1002"
	],
	"Z1233": [
		"Z60",
		"Z1002"
	],
	"Z1234": [
		"Z60",
		"Z1002"
	],
	"Z1235": [
		"Z60",
		"Z1002"
	],
	"Z1236": [
		"Z60",
		"Z1002"
	],
	"Z1237": [
		"Z60",
		"Z1002"
	],
	"Z1238": [
		"Z60",
		"Z1002"
	],
	"Z1239": [
		"Z60",
		"Z1002"
	],
	"Z1240": [
		"Z60",
		"Z1002"
	],
	"Z1241": [
		"Z60",
		"Z1002"
	],
	"Z1242": [
		"Z60",
		"Z1002"
	],
	"Z1243": [
		"Z60",
		"Z1002"
	],
	"Z1244": [
		"Z60",
		"Z1002"
	],
	"Z1245": [
		"Z60",
		"Z1002"
	],
	"Z1246": [
		"Z60",
		"Z1002"
	],
	"Z1247": [
		"Z60",
		"Z1002"
	],
	"Z1248": [
		"Z60",
		"Z1002"
	],
	"Z1249": [
		"Z60",
		"Z1002"
	],
	"Z1250": [
		"Z60",
		"Z1002"
	],
	"Z1251": [
		"Z60",
		"Z1002"
	],
	"Z1252": [
		"Z60",
		"Z1002"
	],
	"Z1253": [
		"Z60",
		"Z1002"
	],
	"Z1254": [
		"Z60",
		"Z1002"
	],
	"Z1255": [
		"Z60",
		"Z1002"
	],
	"Z1256": [
		"Z60",
		"Z1002"
	],
	"Z1257": [
		"Z60",
		"Z1002"
	],
	"Z1258": [
		"Z60",
		"Z1002"
	],
	"Z1259": [
		"Z60",
		"Z1002"
	],
	"Z1260": [
		"Z60",
		"Z1002"
	],
	"Z1261": [
		"Z60",
		"Z1002"
	],
	"Z1262": [
		"Z60",
		"Z1002"
	],
	"Z1263": [
		"Z60",
		"Z1002"
	],
	"Z1264": [
		"Z60",
		"Z1002"
	],
	"Z1265": [
		"Z60",
		"Z1002"
	],
	"Z1266": [
		"Z60",
		"Z1002"
	],
	"Z1267": [
		"Z60",
		"Z1002"
	],
	"Z1268": [
		"Z60",
		"Z1002"
	],
	"Z1269": [
		"Z60",
		"Z1002"
	],
	"Z1270": [
		"Z60",
		"Z1002"
	],
	"Z1271": [
		"Z60",
		"Z1002"
	],
	"Z1272": [
		"Z60",
		"Z1002"
	],
	"Z1273": [
		"Z60",
		"Z1002"
	],
	"Z1274": [
		"Z60",
		"Z1002"
	],
	"Z1275": [
		"Z60",
		"Z1002"
	],
	"Z1276": [
		"Z60",
		"Z1002"
	],
	"Z1277": [
		"Z60",
		"Z1002"
	],
	"Z1278": [
		"Z60",
		"Z1002"
	],
	"Z1279": [
		"Z60",
		"Z1002"
	],
	"Z1280": [
		"Z60",
		"Z1002"
	],
	"Z1281": [
		"Z60",
		"Z1002"
	],
	"Z1282": [
		"Z60",
		"Z1002"
	],
	"Z1283": [
		"Z60",
		"Z1002"
	],
	"Z1284": [
		"Z60",
		"Z1002"
	],
	"Z1285": [
		"Z60",
		"Z1002"
	],
	"Z1286": [
		"Z60",
		"Z1002"
	],
	"Z1287": [
		"Z60",
		"Z1002"
	],
	"Z1288": [
		"Z60",
		"Z1002"
	],
	"Z1289": [
		"Z60",
		"Z1002"
	],
	"Z1290": [
		"Z60",
		"Z1002"
	],
	"Z1291": [
		"Z60",
		"Z1002"
	],
	"Z1292": [
		"Z60",
		"Z1002"
	],
	"Z1293": [
		"Z60",
		"Z1002"
	],
	"Z1294": [
		"Z60",
		"Z1002"
	],
	"Z1295": [
		"Z60",
		"Z1002"
	],
	"Z1296": [
		"Z60",
		"Z1002"
	],
	"Z1297": [
		"Z60",
		"Z1002"
	],
	"Z1298": [
		"Z60",
		"Z1002"
	],
	"Z1299": [
		"Z60",
		"Z1002"
	],
	"Z1300": [
		"Z60",
		"Z1002"
	],
	"Z1301": [
		"Z60",
		"Z1002"
	],
	"Z1302": [
		"Z60",
		"Z1002"
	],
	"Z1303": [
		"Z60",
		"Z1002"
	],
	"Z1304": [
		"Z60",
		"Z1002"
	],
	"Z1305": [
		"Z60",
		"Z1002"
	],
	"Z1306": [
		"Z60",
		"Z1002"
	],
	"Z1307": [
		"Z60",
		"Z1002"
	],
	"Z1308": [
		"Z60",
		"Z1002"
	],
	"Z1309": [
		"Z60",
		"Z1002"
	],
	"Z1310": [
		"Z60",
		"Z1002"
	],
	"Z1311": [
		"Z60",
		"Z1002"
	],
	"Z1312": [
		"Z60",
		"Z1002"
	],
	"Z1313": [
		"Z60",
		"Z1002"
	],
	"Z1314": [
		"Z60",
		"Z1002"
	],
	"Z1315": [
		"Z60",
		"Z1002"
	],
	"Z1316": [
		"Z60",
		"Z1002"
	],
	"Z1317": [
		"Z60",
		"Z1002"
	],
	"Z1318": [
		"Z60",
		"Z1002"
	],
	"Z1319": [
		"Z60",
		"Z1002"
	],
	"Z1320": [
		"Z60",
		"Z1002"
	],
	"Z1321": [
		"Z60",
		"Z1002"
	],
	"Z1322": [
		"Z60",
		"Z1002"
	],
	"Z1323": [
		"Z60",
		"Z1002"
	],
	"Z1324": [
		"Z60",
		"Z1002"
	],
	"Z1325": [
		"Z60",
		"Z1002"
	],
	"Z1326": [
		"Z60",
		"Z1002"
	],
	"Z1327": [
		"Z60",
		"Z1002"
	],
	"Z1328": [
		"Z60",
		"Z1002"
	],
	"Z1329": [
		"Z60",
		"Z1002"
	],
	"Z1330": [
		"Z60",
		"Z1002"
	],
	"Z1331": [
		"Z60",
		"Z1002"
	],
	"Z1332": [
		"Z60",
		"Z1002"
	],
	"Z1333": [
		"Z60",
		"Z1002"
	],
	"Z1334": [
		"Z60",
		"Z1002"
	],
	"Z1335": [
		"Z60",
		"Z1002"
	],
	"Z1336": [
		"Z60",
		"Z1002"
	],
	"Z1337": [
		"Z60",
		"Z1002"
	],
	"Z1338": [
		"Z60",
		"Z1002"
	],
	"Z1339": [
		"Z60",
		"Z1002"
	],
	"Z1340": [
		"Z60",
		"Z1002"
	],
	"Z1341": [
		"Z60",
		"Z1002"
	],
	"Z1342": [
		"Z60",
		"Z1002"
	],
	"Z1343": [
		"Z60",
		"Z1002"
	],
	"Z1344": [
		"Z60",
		"Z1002"
	],
	"Z1345": [
		"Z60",
		"Z1002"
	],
	"Z1346": [
		"Z60",
		"Z1002"
	],
	"Z1347": [
		"Z60",
		"Z1002"
	],
	"Z1348": [
		"Z60",
		"Z1002"
	],
	"Z1349": [
		"Z60",
		"Z1002"
	],
	"Z1350": [
		"Z60",
		"Z1002"
	],
	"Z1351": [
		"Z60",
		"Z1002"
	],
	"Z1352": [
		"Z60",
		"Z1002"
	],
	"Z1353": [
		"Z60",
		"Z1002"
	],
	"Z1354": [
		"Z60",
		"Z1002"
	],
	"Z1355": [
		"Z60",
		"Z1002"
	],
	"Z1356": [
		"Z60",
		"Z1002"
	],
	"Z1357": [
		"Z60",
		"Z1002"
	],
	"Z1358": [
		"Z60",
		"Z1002"
	],
	"Z1359": [
		"Z60",
		"Z1002"
	],
	"Z1360": [
		"Z60",
		"Z1002"
	],
	"Z1361": [
		"Z60",
		"Z1002"
	],
	"Z1362": [
		"Z60",
		"Z1002"
	],
	"Z1363": [
		"Z60",
		"Z1002"
	],
	"Z1364": [
		"Z60",
		"Z1002"
	],
	"Z1365": [
		"Z60",
		"Z1002"
	],
	"Z1366": [
		"Z60",
		"Z1002"
	],
	"Z1367": [
		"Z60",
		"Z1002"
	],
	"Z1368": [
		"Z60",
		"Z1002"
	],
	"Z1369": [
		"Z60",
		"Z1002"
	],
	"Z1370": [
		"Z60",
		"Z1002"
	],
	"Z1371": [
		"Z60",
		"Z1002"
	],
	"Z1372": [
		"Z60",
		"Z1002"
	],
	"Z1373": [
		"Z60",
		"Z1002"
	],
	"Z1374": [
		"Z60",
		"Z1002"
	],
	"Z1375": [
		"Z60",
		"Z1002"
	],
	"Z1376": [
		"Z60",
		"Z1002"
	],
	"Z1377": [
		"Z60",
		"Z1002"
	],
	"Z1378": [
		"Z60",
		"Z1002"
	],
	"Z1379": [
		"Z60",
		"Z1002"
	],
	"Z1380": [
		"Z60",
		"Z1002"
	],
	"Z1381": [
		"Z60",
		"Z1002"
	],
	"Z1382": [
		"Z60",
		"Z1002"
	],
	"Z1383": [
		"Z60",
		"Z1002"
	],
	"Z1384": [
		"Z60",
		"Z1002"
	],
	"Z1385": [
		"Z60",
		"Z1002"
	],
	"Z1386": [
		"Z60",
		"Z1002"
	],
	"Z1387": [
		"Z60",
		"Z1002"
	],
	"Z1388": [
		"Z60",
		"Z1002"
	],
	"Z1389": [
		"Z60",
		"Z1002"
	],
	"Z1390": [
		"Z60",
		"Z1002"
	],
	"Z1391": [
		"Z60",
		"Z1002"
	],
	"Z1392": [
		"Z60",
		"Z1002"
	],
	"Z1393": [
		"Z60",
		"Z1002"
	],
	"Z1394": [
		"Z60",
		"Z1002"
	],
	"Z1395": [
		"Z60",
		"Z1002"
	],
	"Z1396": [
		"Z60",
		"Z1002"
	],
	"Z1397": [
		"Z60",
		"Z1002"
	],
	"Z1398": [
		"Z60",
		"Z1002"
	],
	"Z1399": [
		"Z60",
		"Z1002"
	],
	"Z1400": [
		"Z60",
		"Z1002"
	],
	"Z1401": [
		"Z60",
		"Z1002"
	],
	"Z1402": [
		"Z60",
		"Z1002"
	],
	"Z1403": [
		"Z60",
		"Z1002"
	],
	"Z1404": [
		"Z60",
		"Z1002"
	],
	"Z1405": [
		"Z60",
		"Z1002"
	],
	"Z1406": [
		"Z60",
		"Z1002"
	],
	"Z1407": [
		"Z60",
		"Z1002"
	],
	"Z1408": [
		"Z60",
		"Z1002"
	],
	"Z1409": [
		"Z60",
		"Z1002"
	],
	"Z1410": [
		"Z60",
		"Z1002"
	],
	"Z1411": [
		"Z60",
		"Z1002"
	],
	"Z1412": [
		"Z60",
		"Z1002"
	],
	"Z1413": [
		"Z60",
		"Z1002"
	],
	"Z1414": [
		"Z60",
		"Z1002"
	],
	"Z1415": [
		"Z60",
		"Z1002"
	],
	"Z1416": [
		"Z60",
		"Z1002"
	],
	"Z1417": [
		"Z60",
		"Z1002"
	],
	"Z1418": [
		"Z60",
		"Z1002"
	],
	"Z1419": [
		"Z60",
		"Z1002"
	],
	"Z1420": [
		"Z60",
		"Z1002"
	],
	"Z1421": [
		"Z60",
		"Z1002"
	],
	"Z1422": [
		"Z60",
		"Z1002"
	],
	"Z1423": [
		"Z60",
		"Z1002"
	],
	"Z1424": [
		"Z60",
		"Z1002"
	],
	"Z1425": [
		"Z60",
		"Z1002"
	],
	"Z1426": [
		"Z60",
		"Z1002"
	],
	"Z1427": [
		"Z60",
		"Z1002"
	],
	"Z1428": [
		"Z60",
		"Z1002"
	],
	"Z1429": [
		"Z60",
		"Z1002"
	],
	"Z1430": [
		"Z60",
		"Z1002"
	],
	"Z1431": [
		"Z60",
		"Z1002"
	],
	"Z1432": [
		"Z60",
		"Z1002"
	],
	"Z1433": [
		"Z60",
		"Z1002"
	],
	"Z1434": [
		"Z60",
		"Z1002"
	],
	"Z1435": [
		"Z60",
		"Z1002"
	],
	"Z1436": [
		"Z60",
		"Z1002"
	],
	"Z1437": [
		"Z60",
		"Z1002"
	],
	"Z1438": [
		"Z60",
		"Z1002"
	],
	"Z1439": [
		"Z60",
		"Z1002"
	],
	"Z1440": [
		"Z60",
		"Z1002"
	],
	"Z1441": [
		"Z60",
		"Z1002"
	],
	"Z1442": [
		"Z60",
		"Z1002"
	],
	"Z1443": [
		"Z60",
		"Z1002"
	],
	"Z1444": [
		"Z60",
		"Z1002"
	],
	"Z1445": [
		"Z60",
		"Z1002"
	],
	"Z1446": [
		"Z60",
		"Z1002"
	],
	"Z1447": [
		"Z60",
		"Z1002"
	],
	"Z1448": [
		"Z60",
		"Z1002"
	],
	"Z1449": [
		"Z60",
		"Z1002"
	],
	"Z1450": [
		"Z60",
		"Z1002"
	],
	"Z1451": [
		"Z60",
		"Z1002"
	],
	"Z1452": [
		"Z60",
		"Z1002"
	],
	"Z1453": [
		"Z60",
		"Z1002"
	],
	"Z1454": [
		"Z60",
		"Z1002"
	],
	"Z1455": [
		"Z60",
		"Z1002"
	],
	"Z1456": [
		"Z60",
		"Z1002"
	],
	"Z1457": [
		"Z60",
		"Z1002"
	],
	"Z1458": [
		"Z60",
		"Z1002"
	],
	"Z1459": [
		"Z60",
		"Z1002"
	],
	"Z1460": [
		"Z60",
		"Z1002"
	],
	"Z1461": [
		"Z60",
		"Z1002"
	],
	"Z1462": [
		"Z60",
		"Z1002"
	],
	"Z1463": [
		"Z60",
		"Z1002"
	],
	"Z1464": [
		"Z60",
		"Z1002"
	],
	"Z1465": [
		"Z60",
		"Z1002"
	],
	"Z1466": [
		"Z60",
		"Z1002"
	],
	"Z1467": [
		"Z60",
		"Z1002"
	],
	"Z1468": [
		"Z60",
		"Z1002"
	],
	"Z1469": [
		"Z60",
		"Z1002"
	],
	"Z1470": [
		"Z60",
		"Z1002"
	],
	"Z1471": [
		"Z60",
		"Z1002"
	],
	"Z1472": [
		"Z60",
		"Z1002"
	],
	"Z1473": [
		"Z60",
		"Z1002"
	],
	"Z1474": [
		"Z60",
		"Z1002"
	],
	"Z1475": [
		"Z60",
		"Z1002"
	],
	"Z1476": [
		"Z60",
		"Z1002"
	],
	"Z1477": [
		"Z60",
		"Z1002"
	],
	"Z1478": [
		"Z60",
		"Z1002"
	],
	"Z1479": [
		"Z60",
		"Z1002"
	],
	"Z1480": [
		"Z60",
		"Z1002"
	],
	"Z1481": [
		"Z60",
		"Z1002"
	],
	"Z1482": [
		"Z60",
		"Z1002"
	],
	"Z1483": [
		"Z60",
		"Z1002"
	],
	"Z1484": [
		"Z60",
		"Z1002"
	],
	"Z1485": [
		"Z60",
		"Z1002"
	],
	"Z1486": [
		"Z60",
		"Z1002"
	],
	"Z1487": [
		"Z60",
		"Z1002"
	],
	"Z1488": [
		"Z60",
		"Z1002"
	],
	"Z1489": [
		"Z60",
		"Z1002"
	],
	"Z1490": [
		"Z60",
		"Z1002"
	],
	"Z1491": [
		"Z60",
		"Z1002"
	],
	"Z1492": [
		"Z60",
		"Z1002"
	],
	"Z1493": [
		"Z60",
		"Z1002"
	],
	"Z1494": [
		"Z60",
		"Z1002"
	],
	"Z1495": [
		"Z60",
		"Z1002"
	],
	"Z1496": [
		"Z60",
		"Z1002"
	],
	"Z1497": [
		"Z60",
		"Z1002"
	],
	"Z1498": [
		"Z60",
		"Z1002"
	],
	"Z1499": [
		"Z60",
		"Z1002"
	],
	"Z1500": [
		"Z60",
		"Z1002"
	],
	"Z1501": [
		"Z60",
		"Z1002"
	],
	"Z1502": [
		"Z60",
		"Z1002"
	],
	"Z1503": [
		"Z60",
		"Z1002"
	],
	"Z1504": [
		"Z60",
		"Z1002"
	],
	"Z1505": [
		"Z60",
		"Z1002"
	],
	"Z1506": [
		"Z60",
		"Z1002"
	],
	"Z1507": [
		"Z60",
		"Z1002"
	],
	"Z1508": [
		"Z60",
		"Z1002"
	],
	"Z1509": [
		"Z60",
		"Z1002"
	],
	"Z1510": [
		"Z60",
		"Z1002"
	],
	"Z1511": [
		"Z60",
		"Z1002"
	],
	"Z1512": [
		"Z60",
		"Z1002"
	],
	"Z1513": [
		"Z60",
		"Z1002"
	],
	"Z1514": [
		"Z60",
		"Z1002"
	],
	"Z1515": [
		"Z60",
		"Z1002"
	],
	"Z1516": [
		"Z60",
		"Z1002"
	],
	"Z1517": [
		"Z60",
		"Z1002"
	],
	"Z1518": [
		"Z60",
		"Z1002"
	],
	"Z1519": [
		"Z60",
		"Z1002"
	],
	"Z1520": [
		"Z60",
		"Z1002"
	],
	"Z1521": [
		"Z60",
		"Z1002"
	],
	"Z1522": [
		"Z60",
		"Z1002"
	],
	"Z1523": [
		"Z60",
		"Z1002"
	],
	"Z1524": [
		"Z60",
		"Z1002"
	],
	"Z1525": [
		"Z60",
		"Z1002"
	],
	"Z1526": [
		"Z60",
		"Z1002"
	],
	"Z1527": [
		"Z60",
		"Z1002"
	],
	"Z1528": [
		"Z60",
		"Z1002"
	],
	"Z1529": [
		"Z60",
		"Z1002"
	],
	"Z1530": [
		"Z60",
		"Z1002"
	],
	"Z1531": [
		"Z60",
		"Z1002"
	],
	"Z1532": [
		"Z60",
		"Z1002"
	],
	"Z1533": [
		"Z60",
		"Z1002"
	],
	"Z1534": [
		"Z60",
		"Z1002"
	],
	"Z1535": [
		"Z60",
		"Z1002"
	],
	"Z1536": [
		"Z60",
		"Z1002"
	],
	"Z1537": [
		"Z60",
		"Z1002"
	],
	"Z1538": [
		"Z60",
		"Z1002"
	],
	"Z1539": [
		"Z60",
		"Z1002"
	],
	"Z1540": [
		"Z60",
		"Z1002"
	],
	"Z1541": [
		"Z60",
		"Z1002"
	],
	"Z1542": [
		"Z60",
		"Z1002"
	],
	"Z1543": [
		"Z60",
		"Z1002"
	],
	"Z1544": [
		"Z60",
		"Z1002"
	],
	"Z1545": [
		"Z60",
		"Z1002"
	],
	"Z1546": [
		"Z60",
		"Z1002"
	],
	"Z1547": [
		"Z60",
		"Z1002"
	],
	"Z1548": [
		"Z60",
		"Z1002"
	],
	"Z1549": [
		"Z60",
		"Z1002"
	],
	"Z1550": [
		"Z60",
		"Z1002"
	],
	"Z1551": [
		"Z60",
		"Z1002"
	],
	"Z1552": [
		"Z60",
		"Z1002"
	],
	"Z1553": [
		"Z60",
		"Z1002"
	],
	"Z1554": [
		"Z60",
		"Z1002"
	],
	"Z1555": [
		"Z60",
		"Z1002"
	],
	"Z1556": [
		"Z60",
		"Z1002"
	],
	"Z1557": [
		"Z60",
		"Z1002"
	],
	"Z1558": [
		"Z60",
		"Z1002"
	],
	"Z1559": [
		"Z60",
		"Z1002"
	],
	"Z1560": [
		"Z60",
		"Z1002"
	],
	"Z1561": [
		"Z60",
		"Z1002"
	],
	"Z1562": [
		"Z60",
		"Z1002"
	],
	"Z1563": [
		"Z60",
		"Z1002"
	],
	"Z1564": [
		"Z60",
		"Z1002"
	],
	"Z1565": [
		"Z60",
		"Z1002"
	],
	"Z1566": [
		"Z60",
		"Z1002"
	],
	"Z1567": [
		"Z60",
		"Z1002"
	],
	"Z1568": [
		"Z60",
		"Z1002"
	],
	"Z1569": [
		"Z60",
		"Z1002"
	],
	"Z1570": [
		"Z60",
		"Z1002"
	],
	"Z1571": [
		"Z60",
		"Z1002"
	],
	"Z1572": [
		"Z60",
		"Z1002"
	],
	"Z1573": [
		"Z60",
		"Z1002"
	],
	"Z1574": [
		"Z60",
		"Z1002"
	],
	"Z1575": [
		"Z60",
		"Z1002"
	],
	"Z1576": [
		"Z60",
		"Z1002"
	],
	"Z1577": [
		"Z60",
		"Z1002"
	],
	"Z1578": [
		"Z60",
		"Z1002"
	],
	"Z1579": [
		"Z60",
		"Z1002"
	],
	"Z1580": [
		"Z60",
		"Z1002"
	],
	"Z1581": [
		"Z60",
		"Z1002"
	],
	"Z1582": [
		"Z60",
		"Z1002"
	],
	"Z1583": [
		"Z60",
		"Z1002"
	],
	"Z1584": [
		"Z60",
		"Z1002"
	],
	"Z1585": [
		"Z60",
		"Z1002"
	],
	"Z1586": [
		"Z60",
		"Z1002"
	],
	"Z1587": [
		"Z60",
		"Z1002"
	],
	"Z1588": [
		"Z60",
		"Z1002"
	],
	"Z1589": [
		"Z60",
		"Z1002"
	],
	"Z1590": [
		"Z60",
		"Z1002"
	],
	"Z1591": [
		"Z60",
		"Z1002"
	],
	"Z1592": [
		"Z60",
		"Z1002"
	],
	"Z1593": [
		"Z60",
		"Z1002"
	],
	"Z1594": [
		"Z60",
		"Z1002"
	],
	"Z1595": [
		"Z60",
		"Z1002"
	],
	"Z1596": [
		"Z60",
		"Z1002"
	],
	"Z1597": [
		"Z60",
		"Z1002"
	],
	"Z1598": [
		"Z60",
		"Z1002"
	],
	"Z1599": [
		"Z60",
		"Z1002"
	],
	"Z1600": [
		"Z60",
		"Z1002"
	],
	"Z1601": [
		"Z60",
		"Z1002"
	],
	"Z1602": [
		"Z60",
		"Z1002"
	],
	"Z1603": [
		"Z60",
		"Z1002"
	],
	"Z1604": [
		"Z60",
		"Z1002"
	],
	"Z1605": [
		"Z60",
		"Z1002"
	],
	"Z1606": [
		"Z60",
		"Z1002"
	],
	"Z1607": [
		"Z60",
		"Z1002"
	],
	"Z1608": [
		"Z60",
		"Z1002"
	],
	"Z1609": [
		"Z60",
		"Z1002"
	],
	"Z1610": [
		"Z60",
		"Z1002"
	],
	"Z1611": [
		"Z60",
		"Z1002"
	],
	"Z1612": [
		"Z60",
		"Z1002"
	],
	"Z1613": [
		"Z60",
		"Z1002"
	],
	"Z1614": [
		"Z60",
		"Z1002"
	],
	"Z1615": [
		"Z60",
		"Z1002"
	],
	"Z1616": [
		"Z60",
		"Z1002"
	],
	"Z1617": [
		"Z60",
		"Z1002"
	],
	"Z1618": [
		"Z60",
		"Z1002"
	],
	"Z1619": [
		"Z60",
		"Z1002"
	],
	"Z1620": [
		"Z60",
		"Z1002"
	],
	"Z1621": [
		"Z60",
		"Z1002"
	],
	"Z1622": [
		"Z60",
		"Z1002"
	],
	"Z1623": [
		"Z60",
		"Z1002"
	],
	"Z1624": [
		"Z60",
		"Z1002"
	],
	"Z1625": [
		"Z60",
		"Z1002"
	],
	"Z1626": [
		"Z60",
		"Z1002"
	],
	"Z1627": [
		"Z60",
		"Z1002"
	],
	"Z1628": [
		"Z60",
		"Z1002"
	],
	"Z1629": [
		"Z60",
		"Z1002"
	],
	"Z1630": [
		"Z60",
		"Z1002"
	],
	"Z1631": [
		"Z60",
		"Z1002"
	],
	"Z1632": [
		"Z60",
		"Z1002"
	],
	"Z1633": [
		"Z60",
		"Z1002"
	],
	"Z1634": [
		"Z60",
		"Z1002"
	],
	"Z1635": [
		"Z60",
		"Z1002"
	],
	"Z1636": [
		"Z60",
		"Z1002"
	],
	"Z1637": [
		"Z60",
		"Z1002"
	],
	"Z1638": [
		"Z60",
		"Z1002"
	],
	"Z1639": [
		"Z60",
		"Z1002"
	],
	"Z1640": [
		"Z60",
		"Z1002"
	],
	"Z1641": [
		"Z60",
		"Z1002"
	],
	"Z1642": [
		"Z60",
		"Z1002"
	],
	"Z1643": [
		"Z60",
		"Z1002"
	],
	"Z1644": [
		"Z60",
		"Z1002"
	],
	"Z1645": [
		"Z60",
		"Z1002"
	],
	"Z1646": [
		"Z60",
		"Z1002"
	],
	"Z1647": [
		"Z60",
		"Z1002"
	],
	"Z1648": [
		"Z60",
		"Z1002"
	],
	"Z1649": [
		"Z60",
		"Z1002"
	],
	"Z1650": [
		"Z60",
		"Z1002"
	],
	"Z1651": [
		"Z60",
		"Z1002"
	],
	"Z1652": [
		"Z60",
		"Z1002"
	],
	"Z1653": [
		"Z60",
		"Z1002"
	],
	"Z1654": [
		"Z60",
		"Z1002"
	],
	"Z1655": [
		"Z60",
		"Z1002"
	],
	"Z1656": [
		"Z60",
		"Z1002"
	],
	"Z1657": [
		"Z60",
		"Z1002"
	],
	"Z1658": [
		"Z60",
		"Z1002"
	],
	"Z1659": [
		"Z60",
		"Z1002"
	],
	"Z1660": [
		"Z60",
		"Z1002"
	],
	"Z1661": [
		"Z60",
		"Z1002"
	],
	"Z1662": [
		"Z60",
		"Z1002"
	],
	"Z1663": [
		"Z60",
		"Z1002"
	],
	"Z1664": [
		"Z60",
		"Z1002"
	],
	"Z1665": [
		"Z60",
		"Z1002"
	],
	"Z1666": [
		"Z60",
		"Z1002"
	],
	"Z1667": [
		"Z60",
		"Z1002"
	],
	"Z1668": [
		"Z60",
		"Z1002"
	],
	"Z1669": [
		"Z60",
		"Z1002"
	],
	"Z1670": [
		"Z60",
		"Z1002"
	],
	"Z1671": [
		"Z60",
		"Z1002"
	],
	"Z1672": [
		"Z60",
		"Z1002"
	],
	"Z1673": [
		"Z60",
		"Z1002"
	],
	"Z1674": [
		"Z60",
		"Z1002"
	],
	"Z1675": [
		"Z60",
		"Z1002"
	],
	"Z1676": [
		"Z60",
		"Z1002"
	],
	"Z1677": [
		"Z60",
		"Z1002"
	],
	"Z1678": [
		"Z60",
		"Z1002"
	],
	"Z1679": [
		"Z60",
		"Z1002"
	],
	"Z1680": [
		"Z60",
		"Z1002"
	],
	"Z1681": [
		"Z60",
		"Z1002"
	],
	"Z1682": [
		"Z60",
		"Z1002"
	],
	"Z1683": [
		"Z60",
		"Z1002"
	],
	"Z1684": [
		"Z60",
		"Z1002"
	],
	"Z1685": [
		"Z60",
		"Z1002"
	],
	"Z1686": [
		"Z60",
		"Z1002"
	],
	"Z1687": [
		"Z60",
		"Z1002"
	],
	"Z1688": [
		"Z60",
		"Z1002"
	],
	"Z1689": [
		"Z60",
		"Z1002"
	],
	"Z1690": [
		"Z60",
		"Z1002"
	],
	"Z1691": [
		"Z60",
		"Z1002"
	],
	"Z1692": [
		"Z60",
		"Z1002"
	],
	"Z1693": [
		"Z60",
		"Z1002"
	],
	"Z1694": [
		"Z60",
		"Z1002"
	],
	"Z1695": [
		"Z60",
		"Z1002"
	],
	"Z1696": [
		"Z60",
		"Z1002"
	],
	"Z1697": [
		"Z60",
		"Z1002"
	],
	"Z1698": [
		"Z60",
		"Z1002"
	],
	"Z1699": [
		"Z60",
		"Z1002"
	],
	"Z1700": [
		"Z60",
		"Z1002"
	],
	"Z1701": [
		"Z60",
		"Z1002"
	],
	"Z1702": [
		"Z60",
		"Z1002"
	],
	"Z1703": [
		"Z60",
		"Z1002"
	],
	"Z1704": [
		"Z60",
		"Z1002"
	],
	"Z1705": [
		"Z60",
		"Z1002"
	],
	"Z1706": [
		"Z60",
		"Z1002"
	],
	"Z1707": [
		"Z60",
		"Z1002"
	],
	"Z1708": [
		"Z60",
		"Z1002"
	],
	"Z1709": [
		"Z60",
		"Z1002"
	],
	"Z1710": [
		"Z60",
		"Z1002"
	],
	"Z1711": [
		"Z60",
		"Z1002"
	],
	"Z1712": [
		"Z60",
		"Z1002"
	],
	"Z1713": [
		"Z60",
		"Z1002"
	],
	"Z1714": [
		"Z60",
		"Z1002"
	],
	"Z1715": [
		"Z60",
		"Z1002"
	],
	"Z1716": [
		"Z60",
		"Z1002"
	],
	"Z1717": [
		"Z60",
		"Z1002"
	],
	"Z1718": [
		"Z60",
		"Z1002"
	],
	"Z1719": [
		"Z60",
		"Z1002"
	],
	"Z1720": [
		"Z60",
		"Z1002"
	],
	"Z1721": [
		"Z60",
		"Z1002"
	],
	"Z1722": [
		"Z60",
		"Z1002"
	],
	"Z1723": [
		"Z60",
		"Z1002"
	],
	"Z1724": [
		"Z60",
		"Z1002"
	],
	"Z1725": [
		"Z60",
		"Z1002"
	],
	"Z1726": [
		"Z60",
		"Z1002"
	],
	"Z1727": [
		"Z60",
		"Z1002"
	],
	"Z1728": [
		"Z60",
		"Z1002"
	],
	"Z1729": [
		"Z60",
		"Z1002"
	],
	"Z1730": [
		"Z60",
		"Z1002"
	],
	"Z1731": [
		"Z60",
		"Z1002"
	],
	"Z1732": [
		"Z60",
		"Z1002"
	],
	"Z1733": [
		"Z60",
		"Z1002"
	],
	"Z1734": [
		"Z60",
		"Z1002"
	],
	"Z1735": [
		"Z60",
		"Z1002"
	],
	"Z1736": [
		"Z60",
		"Z1002"
	],
	"Z1737": [
		"Z60",
		"Z1002"
	],
	"Z1738": [
		"Z60",
		"Z1002"
	],
	"Z1739": [
		"Z60",
		"Z1002"
	],
	"Z1740": [
		"Z60",
		"Z1002"
	],
	"Z1741": [
		"Z60",
		"Z1002"
	],
	"Z1742": [
		"Z60",
		"Z1002"
	],
	"Z1743": [
		"Z60",
		"Z1002"
	],
	"Z1744": [
		"Z60",
		"Z1002"
	],
	"Z1745": [
		"Z60",
		"Z1002"
	],
	"Z1746": [
		"Z60",
		"Z1002"
	],
	"Z1747": [
		"Z60",
		"Z1002"
	],
	"Z1748": [
		"Z60",
		"Z1002"
	],
	"Z1749": [
		"Z60",
		"Z1002"
	],
	"Z1750": [
		"Z60",
		"Z1002"
	],
	"Z1751": [
		"Z60",
		"Z1002"
	],
	"Z1752": [
		"Z60",
		"Z1002"
	],
	"Z1753": [
		"Z60",
		"Z1002"
	],
	"Z1754": [
		"Z60",
		"Z1002"
	],
	"Z1755": [
		"Z60",
		"Z1002"
	],
	"Z1756": [
		"Z60",
		"Z1002"
	],
	"Z1757": [
		"Z60",
		"Z1002"
	],
	"Z1758": [
		"Z60",
		"Z1002"
	],
	"Z1759": [
		"Z60",
		"Z1002"
	],
	"Z1760": [
		"Z60",
		"Z1002"
	],
	"Z1761": [
		"Z60",
		"Z1002"
	],
	"Z1762": [
		"Z60",
		"Z1002"
	],
	"Z1763": [
		"Z60",
		"Z1002"
	],
	"Z1764": [
		"Z60",
		"Z1002"
	],
	"Z1765": [
		"Z60",
		"Z1002"
	],
	"Z1766": [
		"Z60",
		"Z1002"
	],
	"Z1767": [
		"Z60",
		"Z1002"
	],
	"Z1768": [
		"Z60",
		"Z1002"
	],
	"Z1769": [
		"Z60",
		"Z1002"
	],
	"Z1770": [
		"Z60",
		"Z1002"
	],
	"Z1771": [
		"Z60",
		"Z1002"
	],
	"Z1772": [
		"Z60",
		"Z1002"
	],
	"Z1773": [
		"Z60",
		"Z1002"
	],
	"Z1774": [
		"Z60",
		"Z1002"
	],
	"Z1775": [
		"Z60",
		"Z1002"
	],
	"Z1776": [
		"Z60",
		"Z1002"
	],
	"Z1777": [
		"Z60",
		"Z1002"
	],
	"Z1778": [
		"Z60",
		"Z1002"
	],
	"Z1779": [
		"Z60",
		"Z1002"
	],
	"Z1780": [
		"Z60",
		"Z1002"
	],
	"Z1781": [
		"Z60",
		"Z1002"
	],
	"Z1782": [
		"Z60",
		"Z1002"
	],
	"Z1783": [
		"Z60",
		"Z1002"
	],
	"Z1784": [
		"Z60",
		"Z1002"
	],
	"Z1785": [
		"Z60",
		"Z1002"
	],
	"Z1786": [
		"Z60",
		"Z1002"
	],
	"Z1787": [
		"Z60",
		"Z1002"
	],
	"Z1788": [
		"Z60",
		"Z1002"
	],
	"Z1789": [
		"Z60",
		"Z1002"
	],
	"Z1790": [
		"Z60",
		"Z1002"
	],
	"Z1791": [
		"Z60",
		"Z1002"
	],
	"Z1792": [
		"Z60",
		"Z1002"
	],
	"Z1793": [
		"Z60",
		"Z1002"
	],
	"Z1794": [
		"Z60",
		"Z1002"
	],
	"Z1795": [
		"Z60",
		"Z1002"
	],
	"Z1796": [
		"Z60",
		"Z1002"
	],
	"Z1797": [
		"Z60",
		"Z1002"
	],
	"Z1798": [
		"Z60",
		"Z1002"
	],
	"Z1799": [
		"Z60",
		"Z1002"
	],
	"Z1800": [
		"Z60",
		"Z1002"
	],
	"Z1801": [
		"Z60",
		"Z1002"
	],
	"Z1802": [
		"Z60",
		"Z1002"
	],
	"Z1803": [
		"Z60",
		"Z1002"
	],
	"Z1804": [
		"Z60",
		"Z1002"
	],
	"Z1805": [
		"Z60",
		"Z1002"
	],
	"Z1806": [
		"Z60",
		"Z1002"
	],
	"Z1807": [
		"Z60",
		"Z1002"
	],
	"Z1808": [
		"Z60",
		"Z1002"
	],
	"Z1809": [
		"Z60",
		"Z1002"
	],
	"Z1810": [
		"Z60",
		"Z1002"
	],
	"Z1811": [
		"Z60",
		"Z1002"
	],
	"Z1812": [
		"Z60",
		"Z1002"
	],
	"Z1813": [
		"Z60",
		"Z1002"
	],
	"Z1814": [
		"Z60",
		"Z1002"
	],
	"Z1815": [
		"Z60",
		"Z1002"
	],
	"Z1816": [
		"Z60",
		"Z1002"
	],
	"Z1817": [
		"Z60",
		"Z1002"
	],
	"Z1818": [
		"Z60",
		"Z1002"
	],
	"Z1819": [
		"Z60",
		"Z1002"
	],
	"Z1820": [
		"Z60",
		"Z1002"
	],
	"Z1821": [
		"Z60",
		"Z1002"
	],
	"Z1822": [
		"Z60",
		"Z1002"
	],
	"Z1823": [
		"Z60",
		"Z1002"
	],
	"Z1824": [
		"Z60",
		"Z1002"
	],
	"Z1825": [
		"Z60",
		"Z1002"
	],
	"Z1826": [
		"Z60",
		"Z1002"
	],
	"Z1827": [
		"Z60",
		"Z1002"
	],
	"Z1828": [
		"Z60",
		"Z1002"
	],
	"Z1829": [
		"Z60",
		"Z1002"
	],
	"Z1830": [
		"Z60",
		"Z1002"
	],
	"Z1831": [
		"Z60",
		"Z1002"
	],
	"Z1832": [
		"Z60",
		"Z1002"
	],
	"Z1833": [
		"Z60",
		"Z1002"
	],
	"Z1834": [
		"Z60",
		"Z1002"
	],
	"Z1835": [
		"Z60",
		"Z1002"
	],
	"Z1836": [
		"Z60",
		"Z1002"
	],
	"Z1837": [
		"Z60",
		"Z1002"
	],
	"Z1838": [
		"Z60",
		"Z1002"
	],
	"Z1839": [
		"Z60",
		"Z1002"
	],
	"Z1840": [
		"Z60",
		"Z1002"
	],
	"Z1841": [
		"Z60",
		"Z1002"
	],
	"Z1842": [
		"Z60",
		"Z1002"
	],
	"Z1843": [
		"Z60",
		"Z1002"
	],
	"Z1844": [
		"Z60",
		"Z1002"
	],
	"Z1845": [
		"Z60",
		"Z1002"
	],
	"Z1846": [
		"Z60",
		"Z1002"
	],
	"Z1847": [
		"Z60",
		"Z1002"
	],
	"Z1848": [
		"Z60",
		"Z1002"
	],
	"Z1849": [
		"Z60",
		"Z1002"
	],
	"Z1850": [
		"Z60",
		"Z1002"
	],
	"Z1851": [
		"Z60",
		"Z1002"
	],
	"Z1852": [
		"Z60",
		"Z1002"
	],
	"Z1853": [
		"Z60",
		"Z1002"
	],
	"Z1854": [
		"Z60",
		"Z1002"
	],
	"Z1855": [
		"Z60",
		"Z1002"
	],
	"Z1856": [
		"Z60",
		"Z1002"
	],
	"Z1857": [
		"Z60",
		"Z1002"
	],
	"Z1858": [
		"Z60",
		"Z1002"
	],
	"Z1859": [
		"Z60",
		"Z1002"
	],
	"Z1860": [
		"Z60",
		"Z1002"
	],
	"Z1861": [
		"Z60",
		"Z1002"
	],
	"Z1862": [
		"Z60",
		"Z1002"
	],
	"Z1863": [
		"Z60",
		"Z1002"
	],
	"Z1864": [
		"Z60",
		"Z1002"
	],
	"Z1865": [
		"Z60",
		"Z1002"
	],
	"Z1866": [
		"Z60",
		"Z1002"
	],
	"Z1867": [
		"Z60",
		"Z1002"
	],
	"Z1868": [
		"Z60",
		"Z1002"
	],
	"Z1869": [
		"Z60",
		"Z1002"
	],
	"Z1870": [
		"Z60",
		"Z1002"
	],
	"Z1871": [
		"Z60",
		"Z1002"
	],
	"Z1872": [
		"Z60",
		"Z1002"
	],
	"Z1873": [
		"Z60",
		"Z1002"
	],
	"Z1874": [
		"Z60",
		"Z1002"
	],
	"Z1875": [
		"Z60",
		"Z1002"
	],
	"Z1876": [
		"Z60",
		"Z1002"
	],
	"Z1877": [
		"Z60",
		"Z1002"
	],
	"Z1878": [
		"Z60",
		"Z1002"
	],
	"Z1879": [
		"Z60",
		"Z1002"
	],
	"Z1880": [
		"Z60",
		"Z1002"
	],
	"Z1881": [
		"Z60",
		"Z1002"
	],
	"Z1882": [
		"Z60",
		"Z1002"
	],
	"Z1883": [
		"Z60",
		"Z1002"
	],
	"Z1884": [
		"Z60",
		"Z1002"
	],
	"Z1885": [
		"Z60",
		"Z1002"
	],
	"Z1886": [
		"Z60",
		"Z1002"
	],
	"Z1887": [
		"Z60",
		"Z1002"
	],
	"Z1888": [
		"Z60",
		"Z1002"
	],
	"Z1889": [
		"Z60",
		"Z1002"
	],
	"Z1890": [
		"Z60",
		"Z1002"
	],
	"Z1891": [
		"Z60",
		"Z1002"
	],
	"Z1892": [
		"Z60",
		"Z1002"
	],
	"Z1893": [
		"Z60",
		"Z1002"
	],
	"Z1894": [
		"Z60",
		"Z1002"
	],
	"Z1895": [
		"Z60",
		"Z1002"
	],
	"Z1896": [
		"Z60",
		"Z1002"
	],
	"Z1897": [
		"Z60",
		"Z1002"
	],
	"Z1898": [
		"Z60",
		"Z1002"
	],
	"Z1899": [
		"Z60",
		"Z1002"
	],
	"Z1900": [
		"Z60",
		"Z1002"
	],
	"Z1901": [
		"Z60",
		"Z1002"
	],
	"Z1902": [
		"Z60",
		"Z1002"
	],
	"Z1903": [
		"Z60",
		"Z1002"
	],
	"Z1904": [
		"Z60",
		"Z1002"
	],
	"Z1905": [
		"Z60",
		"Z1002"
	],
	"Z1906": [
		"Z60",
		"Z1002"
	],
	"Z1907": [
		"Z60",
		"Z1002",
		"Z1381"
	],
	"Z1908": [
		"Z60",
		"Z1002"
	],
	"Z1909": [
		"Z60",
		"Z1002"
	],
	"Z1910": [
		"Z60",
		"Z1002"
	],
	"Z1911": [
		"Z60",
		"Z1002"
	],
	"Z1912": [
		"Z60",
		"Z1002"
	],
	"Z1913": [
		"Z60",
		"Z1002"
	],
	"Z1914": [
		"Z60",
		"Z1002"
	],
	"Z1915": [
		"Z60",
		"Z1002"
	],
	"Z1916": [
		"Z60",
		"Z1002"
	],
	"Z1917": [
		"Z60",
		"Z1002"
	],
	"Z1918": [
		"Z60",
		"Z1002"
	],
	"Z1919": [
		"Z60",
		"Z1002"
	],
	"Z1920": [
		"Z60",
		"Z1002"
	],
	"Z1921": [
		"Z60",
		"Z1002"
	],
	"Z7015": [
		"Z1002"
	],
	"Z7138": [
		"Z7015",
		"Z1002"
	],
	"Z7139": [
		"Z1002"
	],
	"Z7140": [
		"Z1002",
		"Z60"
	],
	"Z8010": [
		"Z20",
		"Z1002"
	],
	"Z8011": [
		"Z20",
		"Z1002"
	],
	"Z8012": [
		"Z20",
		"Z40",
		"Z1002"
	],
	"Z8013": [
		"Z20",
		"Z1002"
	],
	"Z8020": [
		"Z20",
		"Z40",
		"Z1002"
	],
	"Z8021": [
		"Z20",
		"Z40",
		"Z1002"
	],
	"Z8100": [
		"Z20",
		"Z1002"
	],
	"Z8110": [
		"Z20",
		"Z1002"
	],
	"Z8120": [
		"Z20",
		"Z1002"
	],
	"Z8130": [
		"Z20",
		"Z40",
		"Z1002"
	],
	"Z8131": [
		"Z20",
		"Z40",
		"Z1002"
	],
	"Z8210": [
		"Z20",
		"Z1002"
	],
	"Z8220": [
		"Z20",
		"Z1002"
	],
	"Z8440": [
		"Z20",
		"Z40",
		"Z1002"
	],
	"Z8441": [
		"Z20",
		"Z40",
		"Z1002"
	],
	"Z8442": [
		"Z20",
		"Z40",
		"Z1002"
	],
	"Z8443": [
		"Z20",
		"Z40",
		"Z1002"
	],
	"Z8660": [
		"Z20",
		"Z40",
		"Z1002"
	],
	"Z8661": [
		"Z20",
		"Z40",
		"Z1002"
	],
	"Z8662": [
		"Z20",
		"Z40",
		"Z1002"
	],
	"Z8880": [
		"Z20",
		"Z86",
		"Z40",
		"Z1002"
	],
	"Z8881": [
		"Z20",
		"Z86",
		"Z40",
		"Z1002"
	],
	"Z8882": [
		"Z20",
		"Z86",
		"Z40",
		"Z1002"
	]
}
