{
	"Z1K1": "Z2",
	"Z2K1": {
		"Z1K1": "Z6",
		"Z6K1": "Z1346"
	},
	"Z2K2": {
		"Z1K1": "Z60",
		"Z60K1": "vro",
		"Z60K2": [
			"Z6",
			"fiu-vro"
		]
	},
	"Z2K3": {
		"Z1K1": "Z12",
		"Z12K1": [
			"Z11",
			{
				"Z1K1": "Z11",
				"Z11K1": "Z1002",
				"Z11K2": "võro"
			},
			{
				"Z1K1": "Z11",
				"Z11K1": "Z1346",
				"Z11K2": "võro"
			}
		]
	},
	"Z2K4": {
		"Z1K1": "Z32",
		"Z32K1": [
			"Z31"
		]
	},
	"Z2K5": {
		"Z1K1": "Z12",
		"Z12K1": [
			"Z11"
		]
	}
}
