{
	"Z1K1": "Z2",
	"Z2K1": {
		"Z1K1": "Z6",
		"Z6K1": "Z1646"
	},
	"Z2K2": {
		"Z1K1": "Z60",
		"Z60K1": "sms"
	},
	"Z2K3": {
		"Z1K1": "Z12",
		"Z12K1": [
			"Z11",
			{
				"Z1K1": "Z11",
				"Z11K1": "Z1002",
				"Z11K2": "Skolt Sami"
			}
		]
	}
}
