{
	"Z1K1": "Z2",
	"Z2K1": {
		"Z1K1": "Z6",
		"Z6K1": "Z3"
	},
	"Z2K2": {
		"Z1K1": "Z4",
		"Z4K1": "Z3",
		"Z4K2": [
			"Z3",
			{
				"Z1K1": "Z3",
				"Z3K1": "Z4",
				"Z3K2": "Z3K1",
				"Z3K3": {
					"Z1K1": "Z12",
					"Z12K1": [
						"Z11",
						{
							"Z1K1": "Z11",
							"Z11K1": "Z1002",
							"Z11K2": "value type"
						}
					]
				}
			},
			{
				"Z1K1": "Z3",
				"Z3K1": "Z6",
				"Z3K2": "Z3K2",
				"Z3K3": {
					"Z1K1": "Z12",
					"Z12K1": [
						"Z11",
						{
							"Z1K1": "Z11",
							"Z11K1": "Z1002",
							"Z11K2": "key id"
						}
					]
				}
			},
			{
				"Z1K1": "Z3",
				"Z3K1": "Z12",
				"Z3K2": "Z3K3",
				"Z3K3": {
					"Z1K1": "Z12",
					"Z12K1": [
						"Z11",
						{
							"Z1K1": "Z11",
							"Z11K1": "Z1002",
							"Z11K2": "label"
						}
					]
				}
			}
		],
		"Z4K3": "Z103"
	},
	"Z2K3": {
		"Z1K1": "Z12",
		"Z12K1": [
			"Z11",
			{
				"Z1K1": "Z11",
				"Z11K1": "Z1002",
				"Z11K2": "Key"
			}
		]
	},
	"Z2K5": {
		"Z1K1": "Z12",
		"Z12K1": [
			"Z11",
			{
				"Z1K1": "Z11",
				"Z11K1": "Z1002",
				"Z11K2": "A referenced key/value pair within a Z4/Type."
			}
		]
	}
}
