{
	"Z1K1": "Z2",
	"Z2K1": {
		"Z1K1": "Z6",
		"Z6K1": "Z46"
	},
	"Z2K2": {
		"Z1K1": "Z4",
		"Z4K1": "Z46",
		"Z4K2": [
			"Z3",
			{
				"Z1K1": "Z3",
				"Z3K1": "Z46",
				"Z3K2": "Z46K1",
				"Z3K3": {
					"Z1K1": "Z12",
					"Z12K1": [
						"Z11",
						{
							"Z1K1": "Z11",
							"Z11K1": "Z1002",
							"Z11K2": "identity"
						}
					]
				}
			},
			{
				"Z1K1": "Z3",
				"Z3K1": "Z4",
				"Z3K2": "Z46K2",
				"Z3K3": {
					"Z1K1": "Z12",
					"Z12K1": [
						"Z11",
						{
							"Z1K1": "Z11",
							"Z11K1": "Z1002",
							"Z11K2": "type"
						}
					]
				}
			},
			{
				"Z1K1": "Z3",
				"Z3K1": "Z16",
				"Z3K2": "Z46K3",
				"Z3K3": {
					"Z1K1": "Z12",
					"Z12K1": [
						"Z11",
						{
							"Z1K1": "Z11",
							"Z11K1": "Z1002",
							"Z11K2": "converter"
						}
					]
				}
			},
			{
				"Z1K1": "Z3",
				"Z3K1": "Z6",
				"Z3K2": "Z46K4",
				"Z3K3": {
					"Z1K1": "Z12",
					"Z12K1": [
						"Z11",
						{
							"Z1K1": "Z11",
							"Z11K1": "Z1002",
							"Z11K2": "native type"
						}
					]
				}
			}
		],
		"Z4K3": "Z161"
	},
	"Z2K3": {
		"Z1K1": "Z12",
		"Z12K1": [
			"Z11",
			{
				"Z1K1": "Z11",
				"Z11K1": "Z1002",
				"Z11K2": "Deserialiser"
			},
			{
				"Z1K1": "Z11",
				"Z11K1": "Z1689",
				"Z11K2": "Deserializer"
			}
		]
	}
}
