{
	"Z1K1": "Z2",
	"Z2K1": {
		"Z1K1": "Z6",
		"Z6K1": "Z505"
	},
	"Z2K2": {
		"Z1K1": "Z50",
		"Z50K1": [
			"Z3",
			{
				"Z1K1": "Z3",
				"Z3K1": "Z6",
				"Z3K2": "Z505K1",
				"Z3K3": {
					"Z1K1": "Z12",
					"Z12K1": [
						"Z11",
						{
							"Z1K1": "Z11",
							"Z11K1": "Z1002",
							"Z11K2": "expected"
						}
					]
				}
			},
			{
				"Z1K1": "Z3",
				"Z3K1": "Z6",
				"Z3K2": "Z505K2",
				"Z3K3": {
					"Z1K1": "Z12",
					"Z12K1": [
						"Z11",
						{
							"Z1K1": "Z11",
							"Z11K1": "Z1002",
							"Z11K2": "actual"
						}
					]
				}
			},
			{
				"Z1K1": "Z3",
				"Z3K1": {
					"Z1K1": "Z7",
					"Z7K1": "Z881",
					"Z881K1": "Z1"
				},
				"Z3K2": "Z505K3",
				"Z3K3": {
					"Z1K1": "Z12",
					"Z12K1": [
						"Z11",
						{
							"Z1K1": "Z11",
							"Z11K1": "Z1002",
							"Z11K2": "arguments"
						}
					]
				}
			}
		]
	},
	"Z2K3": {
		"Z1K1": "Z12",
		"Z12K1": [
			"Z11",
			{
				"Z1K1": "Z11",
				"Z11K1": "Z1002",
				"Z11K2": "Number of arguments mismatch"
			}
		]
	}
}
