{
	"Z1K1": "Z2",
	"Z2K1": {
		"Z1K1": "Z6",
		"Z6K1": "Z506"
	},
	"Z2K2": {
		"Z1K1": "Z50",
		"Z50K1": [
			"Z3",
			{
				"Z1K1": "Z3",
				"Z3K1": "Z4",
				"Z3K2": "Z506K1",
				"Z3K3": {
					"Z1K1": "Z12",
					"Z12K1": [
						"Z11",
						{
							"Z1K1": "Z11",
							"Z11K1": "Z1002",
							"Z11K2": "expected"
						}
					]
				}
			},
			{
				"Z1K1": "Z3",
				"Z3K1": "Z4",
				"Z3K2": "Z506K2",
				"Z3K3": {
					"Z1K1": "Z12",
					"Z12K1": [
						"Z11",
						{
							"Z1K1": "Z11",
							"Z11K1": "Z1002",
							"Z11K2": "actual"
						}
					]
				}
			},
			{
				"Z1K1": "Z3",
				"Z3K1": "Z1",
				"Z3K2": "Z506K3",
				"Z3K3": {
					"Z1K1": "Z12",
					"Z12K1": [
						"Z11",
						{
							"Z1K1": "Z11",
							"Z11K1": "Z1002",
							"Z11K2": "argument"
						}
					]
				}
			},
			{
				"Z1K1": "Z3",
				"Z3K1": "Z5",
				"Z3K2": "Z506K4",
				"Z3K3": {
					"Z1K1": "Z12",
					"Z12K1": [
						"Z11",
						{
							"Z1K1": "Z11",
							"Z11K1": "Z1002",
							"Z11K2": "propagated error"
						}
					]
				}
			}
		]
	},
	"Z2K3": {
		"Z1K1": "Z12",
		"Z12K1": [
			"Z11",
			{
				"Z1K1": "Z11",
				"Z11K1": "Z1002",
				"Z11K2": "Argument type mismatch"
			}
		]
	}
}
