{
	"Z1K1": "Z2",
	"Z2K1": {
		"Z1K1": "Z6",
		"Z6K1": "Z8011"
	},
	"Z2K2": {
		"Z1K1": "Z20",
		"Z20K1": "Z801",
		"Z20K2": {
			"Z1K1": "Z7",
			"Z7K1": "Z801",
			"Z801K1": "Ćæβ⇒∑𝓐𝕋"
		},
		"Z20K3": {
			"Z1K1": "Z7",
			"Z7K1": "Z866",
			"Z866K2": "Ćæβ⇒∑𝓐𝕋"
		}
	},
	"Z2K3": {
		"Z1K1": "Z12",
		"Z12K1": [
			"Z11",
			{
				"Z1K1": "Z11",
				"Z11K1": "Z1002",
				"Z11K2": "Echo Test case for UTF8 Strings"
			}
		]
	},
	"Z2K4": {
		"Z1K1": "Z32",
		"Z32K1": [
			"Z31",
			{
				"Z1K1": "Z31",
				"Z31K1": "Z1002",
				"Z31K2": [
					"Z6"
				]
			}
		]
	}
}
